\relax 
\providecommand\hyper@newdestlabel[2]{}
\@writefile{toc}{\contentsline {section}{\numberline {IX}Eidesstattliche Erkl\IeC {\"a}rung}{XXXVIII}{section.9}}
\@setckpt{erklaerung/erklaerung}{
\setcounter{page}{39}
\setcounter{equation}{11}
\setcounter{enumi}{0}
\setcounter{enumii}{0}
\setcounter{enumiii}{0}
\setcounter{enumiv}{0}
\setcounter{footnote}{15}
\setcounter{mpfootnote}{0}
\setcounter{part}{0}
\setcounter{section}{9}
\setcounter{subsection}{0}
\setcounter{subsubsection}{0}
\setcounter{paragraph}{0}
\setcounter{subparagraph}{0}
\setcounter{figure}{41}
\setcounter{table}{14}
\setcounter{lstnumber}{18}
\setcounter{LT@tables}{0}
\setcounter{LT@chunks}{0}
\setcounter{Item}{0}
\setcounter{bookmark@seq@number}{49}
\setcounter{ContinuedFloat}{0}
\setcounter{subfigure}{2}
\setcounter{subtable}{0}
\setcounter{lstlisting}{25}
\setcounter{section@level}{1}
}
