\relax 
\providecommand\hyper@newdestlabel[2]{}
\@writefile{toc}{\contentsline {section}{\numberline {II}Synonyme und Erkl\IeC {\"a}rungen}{VI}{section.2}}
\newlabel{syn}{{II}{VI}{Synonyme und Erklärungen}{section.2}{}}
\@writefile{lot}{\contentsline {table}{\numberline {1}{\ignorespaces Synonyme und Erkl\IeC {\"a}rungen}}{VI}{table.1}}
\newlabel{tab:typo}{{1}{VI}{Synonyme und Erklärungen}{table.1}{}}
\@setckpt{intro/syn}{
\setcounter{page}{7}
\setcounter{equation}{0}
\setcounter{enumi}{0}
\setcounter{enumii}{0}
\setcounter{enumiii}{0}
\setcounter{enumiv}{0}
\setcounter{footnote}{0}
\setcounter{mpfootnote}{0}
\setcounter{part}{0}
\setcounter{section}{2}
\setcounter{subsection}{0}
\setcounter{subsubsection}{0}
\setcounter{paragraph}{0}
\setcounter{subparagraph}{0}
\setcounter{figure}{0}
\setcounter{table}{1}
\setcounter{LT@tables}{0}
\setcounter{LT@chunks}{0}
\setcounter{Item}{0}
\setcounter{bookmark@seq@number}{2}
\setcounter{lstnumber}{1}
\setcounter{section@level}{1}
\setcounter{lstlisting}{0}
}
