{
"width" : 227,
"height" : 227,
"channel" : 3,
"batch_size" : 128,
"resource": "path_to_resource",
"save_path" : "results/",
"archive" : false,
"video_files" : ["example.mp4"] ,
"confusion_matrix" : true,
"eval_map" : {
	"path_to_image" : "path_to_eval_image",
	"path_to_label" : "path_to_eval_groundtruth",
	"road_color_bgr" : [255,255,255],
	"background_color_bgr" : [0,0,0],
	"number_of_image" : 20000
},
"acc" : 0
}


