\relax 
\providecommand\hyper@newdestlabel[2]{}
\providecommand\HyperFirstAtBeginDocument{\AtBeginDocument}
\HyperFirstAtBeginDocument{\ifx\hyper@anchor\@undefined
\global\let\oldcontentsline\contentsline
\gdef\contentsline#1#2#3#4{\oldcontentsline{#1}{#2}{#3}}
\global\let\oldnewlabel\newlabel
\gdef\newlabel#1#2{\newlabelxx{#1}#2}
\gdef\newlabelxx#1#2#3#4#5#6{\oldnewlabel{#1}{{#2}{#3}}}
\AtEndDocument{\ifx\hyper@anchor\@undefined
\let\contentsline\oldcontentsline
\let\newlabel\oldnewlabel
\fi}
\fi}
\global\let\hyper@last\relax 
\gdef\HyperFirstAtBeginDocument#1{#1}
\providecommand\HyField@AuxAddToFields[1]{}
\providecommand\HyField@AuxAddToCoFields[2]{}
\bibstyle{alphadin}
\@input{intro/latex_einstellungen/deckblatt.aux}
\@input{intro/vorwort.aux}
\@writefile{toc}{\contentsline {section}{\numberline {I}Abk\IeC {\"u}rzungsverzeichnis}{V}{section.1}}
\@input{intro/abstract.aux}
\@input{intro/aufb.aux}
\citation{chatbot}
\citation{autoBW}
\citation{googleAuto}
\@writefile{toc}{\contentsline {section}{\numberline {1}Einleitung}{1}{section.1}}
\newlabel{einleitung}{{1}{1}{Einleitung}{section.1}{}}
\newlabel{einleitung@cref}{{[section][1][]1}{1}}
\@writefile{toc}{\contentsline {subsection}{\numberline {1.1}Ausgangssituation}{1}{subsection.1.1}}
\@writefile{toc}{\contentsline {subsubsection}{\numberline {1.1.1}Motivation}{1}{subsubsection.1.1.1}}
\@writefile{toc}{\contentsline {subsubsection}{\numberline {1.1.2}Problemstellung}{1}{subsubsection.1.1.2}}
\citation{BAAINBw}
\citation{BAAINBw}
\citation{BAAINBw}
\@writefile{toc}{\contentsline {subsubsection}{\numberline {1.1.3}Zielsetzung}{2}{subsubsection.1.1.3}}
\@writefile{toc}{\contentsline {subsection}{\numberline {1.2}Einf\IeC {\"u}hrung ins Bundesamt}{2}{subsection.1.2}}
\@writefile{toc}{\contentsline {subsubsection}{\numberline {1.2.1}BAAINBw}{2}{subsubsection.1.2.1}}
\@writefile{lof}{\contentsline {figure}{\numberline {1}{\ignorespaces Organigram BAAINBw}}{3}{figure.caption.6}}
\providecommand*\caption@xref[2]{\@setref\relax\@undefined{#1}}
\newlabel{fig:Organigram BAAINBw}{{1}{3}{Organigram BAAINBw}{figure.caption.6}{}}
\newlabel{fig:Organigram BAAINBw@cref}{{[figure][1][]1}{3}}
\@writefile{toc}{\contentsline {subsubsection}{\numberline {1.2.2}Abteilung U6.2}{3}{subsubsection.1.2.2}}
\citation{WikiKNN}
\citation{Smith1993}
\citation{PicNeuron}
\citation{PicNeuron}
\citation{WikiKNN}
\citation{Smith1993}
\citation{hhu}
\citation{dosSantos2018May}
\citation{dosSantos2018May}
\@writefile{toc}{\contentsline {section}{\numberline {2}Grundlagen}{4}{section.2}}
\newlabel{grundlagen}{{2}{4}{Grundlagen}{section.2}{}}
\newlabel{grundlagen@cref}{{[section][2][]2}{4}}
\@writefile{toc}{\contentsline {subsection}{\numberline {2.1}K\IeC {\"u}nstliche Neuronale Netze}{4}{subsection.2.1}}
\@writefile{lof}{\contentsline {figure}{\numberline {2}{\ignorespaces Vergleich NN mit KNN}}{4}{figure.caption.7}}
\newlabel{fig:Vergleich NN mit KNN}{{2}{4}{Vergleich NN mit KNN}{figure.caption.7}{}}
\newlabel{fig:Vergleich NN mit KNN@cref}{{[figure][2][]2}{4}}
\@writefile{toc}{\contentsline {subsubsection}{\numberline {2.1.1}Convolutional Neural Network}{4}{subsubsection.2.1.1}}
\citation{hhu}
\citation{dosSantos2018May}
\citation{CNN_Aufbau}
\citation{fcnn}
\citation{dosSantos2018May}
\citation{dosSantos2018May}
\citation{dosSantos2018May}
\citation{dosSantos2018May}
\@writefile{lof}{\contentsline {figure}{\numberline {3}{\ignorespaces Beispiel CNN}}{5}{figure.caption.8}}
\newlabel{fig:cnn}{{3}{5}{Beispiel CNN}{figure.caption.8}{}}
\newlabel{fig:cnn@cref}{{[figure][3][]3}{5}}
\@writefile{toc}{\contentsline {subsubsection}{\numberline {2.1.2}Fully Convolutional Neural Network}{5}{subsubsection.2.1.2}}
\citation{dosSantos2018May}
\citation{dosSantos2018May}
\citation{tensor}
\citation{back}
\citation{WIKIsgd}
\citation{STUsgd}
\@writefile{lof}{\contentsline {figure}{\numberline {4}{\ignorespaces Beispiel FCN}}{6}{figure.caption.9}}
\newlabel{fig:fcn}{{4}{6}{Beispiel FCN}{figure.caption.9}{}}
\newlabel{fig:fcn@cref}{{[figure][4][]4}{6}}
\@writefile{toc}{\contentsline {subsubsection}{\numberline {2.1.3}Deconvolutional Neural Network}{6}{subsubsection.2.1.3}}
\@writefile{lof}{\contentsline {figure}{\numberline {5}{\ignorespaces Beispiel Deconvnet}}{6}{figure.caption.10}}
\newlabel{fig:deconvnet}{{5}{6}{Beispiel Deconvnet}{figure.caption.10}{}}
\newlabel{fig:deconvnet@cref}{{[figure][5][]5}{6}}
\@writefile{toc}{\contentsline {subsubsection}{\numberline {2.1.4}Optimizer}{6}{subsubsection.2.1.4}}
\@writefile{toc}{\contentsline {paragraph}{\nonumberline Stochastic Gradient Descent}{6}{section*.11}}
\citation{Lau2018Jun}
\citation{Lau2018Jun}
\citation{User2018May}
\@writefile{toc}{\contentsline {paragraph}{\nonumberline SGD mit Drop Rate}{7}{section*.12}}
\@writefile{toc}{\contentsline {paragraph}{\nonumberline SGD mit Zeitlicher Rate}{7}{section*.13}}
\@writefile{toc}{\contentsline {paragraph}{\nonumberline Adam}{7}{section*.14}}
\@writefile{toc}{\contentsline {subsubsection}{\numberline {2.1.5}Aktivierungsfunktion}{7}{subsubsection.2.1.5}}
\citation{ReLU_1}
\citation{Relu_2}
\citation{bias}
\citation{LeakyReLU}
\citation{Relu_2}
\citation{User2018May}
\@writefile{toc}{\contentsline {paragraph}{\nonumberline Rectifier Linear Unit}{8}{section*.15}}
\newlabel{eq:ReLU}{{1}{8}{Rectifier Linear Unit}{equation.2.1}{}}
\newlabel{eq:ReLU@cref}{{[equation][1][]1}{8}}
\@writefile{toc}{\contentsline {paragraph}{\nonumberline LeakyReLU}{8}{section*.16}}
\newlabel{eq:LReLU}{{2}{8}{LeakyReLU}{equation.2.2}{}}
\newlabel{eq:LReLU@cref}{{[equation][2][]2}{8}}
\@writefile{toc}{\contentsline {subsubsection}{\numberline {2.1.6}Zielfunktion}{8}{subsubsection.2.1.6}}
\citation{entr}
\citation{keras}
\citation{cross_entropy}
\citation{keras}
\citation{MAE}
\citation{MSE}
\citation{Tens}
\@writefile{toc}{\contentsline {paragraph}{\nonumberline Binary Cross Entropy}{9}{section*.17}}
\newlabel{eq:BCE}{{3}{9}{Binary Cross Entropy}{equation.2.3}{}}
\newlabel{eq:BCE@cref}{{[equation][3][]3}{9}}
\@writefile{toc}{\contentsline {paragraph}{\nonumberline Mean Absolute Error}{9}{section*.18}}
\newlabel{eq:MAE}{{4}{9}{Mean Absolute Error}{equation.2.4}{}}
\newlabel{eq:MAE@cref}{{[equation][4][]4}{9}}
\@writefile{toc}{\contentsline {paragraph}{\nonumberline Mean Squared Error}{9}{section*.19}}
\newlabel{eq:MSE}{{5}{9}{Mean Squared Error}{equation.2.5}{}}
\newlabel{eq:MSE@cref}{{[equation][5][]5}{9}}
\citation{Tens}
\citation{cntk}
\citation{Tens}
\citation{chollet2015keras}
\citation{opencv}
\citation{Tensorboard}
\@writefile{toc}{\contentsline {subsection}{\numberline {2.2}KNN Bibliotheken}{10}{subsection.2.2}}
\@writefile{toc}{\contentsline {subsubsection}{\numberline {2.2.1}TensorFlow}{10}{subsubsection.2.2.1}}
\@writefile{toc}{\contentsline {subsubsection}{\numberline {2.2.2}Keras}{10}{subsubsection.2.2.2}}
\@writefile{toc}{\contentsline {subsubsection}{\numberline {2.2.3}OpenCV}{10}{subsubsection.2.2.3}}
\@writefile{toc}{\contentsline {subsubsection}{\numberline {2.2.4}TensorBoard}{10}{subsubsection.2.2.4}}
\citation{keferstein2018fertigungsmesstechnik}
\citation{keferstein2018fertigungsmesstechnik}
\@writefile{lof}{\contentsline {figure}{\numberline {6}{\ignorespaces Ausschnitt aus Tensorboard}}{11}{figure.caption.20}}
\newlabel{fig:Tensorboard}{{6}{11}{Ausschnitt aus Tensorboard}{figure.caption.20}{}}
\newlabel{fig:Tensorboard@cref}{{[figure][6][]6}{11}}
\@writefile{toc}{\contentsline {subsection}{\numberline {2.3}Evaluierungstechniken}{11}{subsection.2.3}}
\@writefile{toc}{\contentsline {subsubsection}{\numberline {2.3.1}Konfusionsmatrix}{11}{subsubsection.2.3.1}}
\@writefile{lot}{\contentsline {table}{\numberline {1}{\ignorespaces Konfusionsmatrix als Pivottabelle \cite  {keferstein2018fertigungsmesstechnik}\relax }}{11}{table.caption.21}}
\newlabel{tab:confusion}{{1}{11}{Konfusionsmatrix als Pivottabelle \cite {keferstein2018fertigungsmesstechnik}\relax }{table.caption.21}{}}
\newlabel{tab:confusion@cref}{{[table][1][]1}{11}}
\@writefile{toc}{\contentsline {subsubsection}{\numberline {2.3.2}Fehlerbild}{12}{subsubsection.2.3.2}}
\newlabel{fig:sub:error1}{{7a}{12}{Vorhersage\relax }{figure.caption.22}{}}
\newlabel{fig:sub:error1@cref}{{[subfigure][1][7]7a}{12}}
\newlabel{sub@fig:sub:error1}{{a}{12}{Vorhersage\relax }{figure.caption.22}{}}
\newlabel{sub@fig:sub:error1@cref}{{[subfigure][1][7]7a}{12}}
\newlabel{fig:sub:error2}{{7b}{12}{Groundtruth\relax }{figure.caption.22}{}}
\newlabel{fig:sub:error2@cref}{{[subfigure][2][7]7b}{12}}
\newlabel{sub@fig:sub:error2}{{b}{12}{Groundtruth\relax }{figure.caption.22}{}}
\newlabel{sub@fig:sub:error2@cref}{{[subfigure][2][7]7b}{12}}
\newlabel{fig:sub:error3}{{7c}{12}{Fehlerbild\relax }{figure.caption.22}{}}
\newlabel{fig:sub:error3@cref}{{[subfigure][3][7]7c}{12}}
\newlabel{sub@fig:sub:error3}{{c}{12}{Fehlerbild\relax }{figure.caption.22}{}}
\newlabel{sub@fig:sub:error3@cref}{{[subfigure][3][7]7c}{12}}
\@writefile{lof}{\contentsline {figure}{\numberline {7}{\ignorespaces Darstellung der Evaluierungstechnik Fehlerbild\relax }}{12}{figure.caption.22}}
\newlabel{fig:error}{{7}{12}{Darstellung der Evaluierungstechnik Fehlerbild\relax }{figure.caption.22}{}}
\newlabel{fig:error@cref}{{[figure][7][]7}{12}}
\@writefile{toc}{\contentsline {subsubsection}{\numberline {2.3.3}Max F1-Score}{13}{subsubsection.2.3.3}}
\newlabel{eq:pre}{{6}{13}{Max F1-Score}{equation.2.6}{}}
\newlabel{eq:pre@cref}{{[equation][6][]6}{13}}
\newlabel{eq:rec}{{7}{13}{Max F1-Score}{equation.2.7}{}}
\newlabel{eq:rec@cref}{{[equation][7][]7}{13}}
\newlabel{eq:maxf1}{{8}{13}{Max F1-Score}{equation.2.8}{}}
\newlabel{eq:maxf1@cref}{{[equation][8][]8}{13}}
\citation{KITVBS}
\citation{ILSVRC2012}
\citation{PASCALVOC}
\citation{Silberman:ECCV12}
\citation{SWIFT}
\citation{udemy}
\citation{quora}
\citation{udemy}
\citation{udemy}
\citation{teichmann2016multinet}
\citation{virgo}
\citation{NIPS2012_4824}
\citation{Shelhamer:2017:FCN:3069214.3069246}
\citation{virgo}
\@writefile{toc}{\contentsline {section}{\numberline {3}Stand der Technik}{14}{section.3}}
\newlabel{rewo}{{3}{14}{Stand der Technik}{section.3}{}}
\newlabel{rewo@cref}{{[section][3][]3}{14}}
\@writefile{toc}{\contentsline {subsection}{\numberline {3.1}Machine Learning Engineer Nanodegree Capstone Project}{14}{subsection.3.1}}
\@writefile{lof}{\contentsline {figure}{\numberline {8}{\ignorespaces MLND-Capstone}}{14}{figure.caption.23}}
\newlabel{fig:MLND-Capstone}{{8}{14}{MLND-Capstone}{figure.caption.23}{}}
\newlabel{fig:MLND-Capstone@cref}{{[figure][8][]8}{14}}
\citation{KITVBS}
\citation{Fritsch2013ITSC}
\citation{teichmann2016multinet}
\citation{Shelhamer:2017:FCN:3069214.3069246}
\citation{Shelhamer:2017:FCN:3069214.3069246}
\citation{NIPS2012_4824}
\citation{Simonyan14c}
\citation{GoogleNet}
\citation{43022}
\citation{PASCALVOC}
\citation{Silberman:ECCV12}
\citation{SWIFT}
\citation{Shelhamer:2017:FCN:3069214.3069246}
\citation{Redmon2018Aug}
\@writefile{toc}{\contentsline {subsection}{\numberline {3.2}Kitti-Segmentation}{15}{subsection.3.2}}
\@writefile{lof}{\contentsline {figure}{\numberline {9}{\ignorespaces KIT Kitti-Segmentation}}{15}{figure.caption.24}}
\newlabel{fig:KIT Kitti-Segmentation}{{9}{15}{KIT Kitti-Segmentation}{figure.caption.24}{}}
\newlabel{fig:KIT Kitti-Segmentation@cref}{{[figure][9][]9}{15}}
\@writefile{toc}{\contentsline {subsection}{\numberline {3.3}FCN for Semantic Segmentation}{15}{subsection.3.3}}
\@writefile{lof}{\contentsline {figure}{\numberline {10}{\ignorespaces Convolutionalization for Semantic Segmentation}}{16}{figure.caption.25}}
\newlabel{fig:FCN for Semantic Segmentation}{{10}{16}{Convolutionalization for Semantic Segmentation}{figure.caption.25}{}}
\newlabel{fig:FCN for Semantic Segmentation@cref}{{[figure][10][]10}{16}}
\@writefile{lof}{\contentsline {figure}{\numberline {11}{\ignorespaces Testergebnis des FCN}}{16}{figure.caption.26}}
\newlabel{fig:Ergebnis des FCN}{{11}{16}{Testergebnis des FCN}{figure.caption.26}{}}
\newlabel{fig:Ergebnis des FCN@cref}{{[figure][11][]11}{16}}
\citation{Anaconda}
\citation{AnacondaWiki}
\@writefile{toc}{\contentsline {section}{\numberline {4}Eigener Ansatz PRICoNN}{17}{section.4}}
\newlabel{cnn}{{4}{17}{Eigener Ansatz PRICoNN}{section.4}{}}
\newlabel{cnn@cref}{{[section][4][]4}{17}}
\@writefile{toc}{\contentsline {subsection}{\numberline {4.1}Hardware Umgebung}{17}{subsection.4.1}}
\@writefile{lot}{\contentsline {table}{\numberline {2}{\ignorespaces Hardware Umgebung Beast 1 \& 2\relax }}{17}{table.caption.27}}
\newlabel{tab:hwumgebung}{{2}{17}{Hardware Umgebung Beast 1 \& 2\relax }{table.caption.27}{}}
\newlabel{tab:hwumgebung@cref}{{[table][2][]2}{17}}
\@writefile{toc}{\contentsline {subsection}{\numberline {4.2}Software Umgebung}{17}{subsection.4.2}}
\citation{m.zaradzki2018Jun}
\citation{m.zaradzki2018Jun}
\citation{m.zaradzki2018Jun}
\@writefile{lot}{\contentsline {table}{\numberline {3}{\ignorespaces Software Umgebung Python\relax }}{18}{table.caption.28}}
\newlabel{tab:swumgebung}{{3}{18}{Software Umgebung Python\relax }{table.caption.28}{}}
\newlabel{tab:swumgebung@cref}{{[table][3][]3}{18}}
\@writefile{toc}{\contentsline {subsection}{\numberline {4.3}KNN Architekturen}{18}{subsection.4.3}}
\@writefile{toc}{\contentsline {subsubsection}{\numberline {4.3.1}FCN8}{18}{subsubsection.4.3.1}}
\citation{Shelhamer:2017:FCN:3069214.3069246}
\citation{Shelhamer:2017:FCN:3069214.3069246}
\citation{Shelhamer:2017:FCN:3069214.3069246}
\citation{Shelhamer:2017:FCN:3069214.3069246}
\citation{DBLP:journals/corr/RonnebergerFB15}
\citation{DBLP:journals/corr/RonnebergerFB15}
\@writefile{lof}{\contentsline {figure}{\numberline {12}{\ignorespaces Abbildung FCN8}}{19}{figure.caption.29}}
\newlabel{fig:Abbildung FCN8}{{12}{19}{Abbildung FCN8}{figure.caption.29}{}}
\newlabel{fig:Abbildung FCN8@cref}{{[figure][12][]12}{19}}
\@writefile{toc}{\contentsline {subsubsection}{\numberline {4.3.2}FCN AlexNet}{19}{subsubsection.4.3.2}}
\@writefile{lof}{\contentsline {figure}{\numberline {13}{\ignorespaces Convolutionalization for Semantic Segmentation}}{19}{figure.caption.30}}
\newlabel{fig:FCN for Semantic Segmentation2}{{13}{19}{Convolutionalization for Semantic Segmentation}{figure.caption.30}{}}
\newlabel{fig:FCN for Semantic Segmentation2@cref}{{[figure][13][]13}{19}}
\@writefile{toc}{\contentsline {subsubsection}{\numberline {4.3.3}U-Net}{19}{subsubsection.4.3.3}}
\citation{DBLP:journals/corr/RonnebergerFB15}
\@writefile{lof}{\contentsline {figure}{\numberline {14}{\ignorespaces U-Net: Biomedical Image Segmentation}}{20}{figure.caption.31}}
\newlabel{fig:U-Net: Biomedical Image Segmentation}{{14}{20}{U-Net: Biomedical Image Segmentation}{figure.caption.31}{}}
\newlabel{fig:U-Net: Biomedical Image Segmentation@cref}{{[figure][14][]14}{20}}
\citation{m.zaradzki2018Jun}
\citation{DBLP:journals/corr/RonnebergerFB15}
\citation{Shelhamer:2017:FCN:3069214.3069246}
\@writefile{toc}{\contentsline {subsection}{\numberline {4.4}Verwendete Architektur}{21}{subsection.4.4}}
\@writefile{lof}{\contentsline {figure}{\numberline {15}{\ignorespaces PRICoNN Architektur}}{21}{figure.caption.32}}
\newlabel{fig:PRICoNN Architektur}{{15}{21}{PRICoNN Architektur}{figure.caption.32}{}}
\newlabel{fig:PRICoNN Architektur@cref}{{[figure][15][]15}{21}}
\citation{Doukkali2018Jun}
\citation{2015arXiv150203167I}
\citation{Spark2018Jul}
\citation{Spark2018Jul}
\citation{Convd}
\citation{Spark2018Jul}
\citation{Spark2018Jul}
\@writefile{lot}{\contentsline {table}{\numberline {4}{\ignorespaces Vergleich von Netzwerkarchitekturen\relax }}{22}{table.caption.33}}
\newlabel{tab:netversuch}{{4}{22}{Vergleich von Netzwerkarchitekturen\relax }{table.caption.33}{}}
\newlabel{tab:netversuch@cref}{{[table][4][]4}{22}}
\@writefile{toc}{\contentsline {subsection}{\numberline {4.5}Entwurf PRICoNN}{22}{subsection.4.5}}
\@writefile{toc}{\contentsline {subsubsection}{\numberline {4.5.1}Normalization Layer}{22}{subsubsection.4.5.1}}
\@writefile{toc}{\contentsline {subsubsection}{\numberline {4.5.2}Convolutional Layer}{22}{subsubsection.4.5.2}}
\citation{Scherer:2010:EPO:1886436.1886447}
\@writefile{lof}{\contentsline {figure}{\numberline {16}{\ignorespaces Conv: Ergebnis nach Filterung}}{23}{figure.caption.34}}
\newlabel{fig:Conv: Ergebnis nach Filterung}{{16}{23}{Conv: Ergebnis nach Filterung}{figure.caption.34}{}}
\newlabel{fig:Conv: Ergebnis nach Filterung@cref}{{[figure][16][]16}{23}}
\@writefile{lof}{\contentsline {figure}{\numberline {17}{\ignorespaces Conv: Convolutional Layer}}{23}{figure.caption.35}}
\newlabel{fig:Conv: Convolutional Layer}{{17}{23}{Conv: Convolutional Layer}{figure.caption.35}{}}
\newlabel{fig:Conv: Convolutional Layer@cref}{{[figure][17][]17}{23}}
\@writefile{toc}{\contentsline {subsubsection}{\numberline {4.5.3}Pooling Layer}{23}{subsubsection.4.5.3}}
\citation{MaxPool}
\citation{MaxPool}
\citation{mnist}
\citation{mnistabb}
\citation{mnistabb}
\@writefile{lof}{\contentsline {figure}{\numberline {18}{\ignorespaces Conv: Pooling Layer}}{24}{figure.caption.36}}
\newlabel{fig:Conv: Max Pooling Layer}{{18}{24}{Conv: Pooling Layer}{figure.caption.36}{}}
\newlabel{fig:Conv: Max Pooling Layer@cref}{{[figure][18][]18}{24}}
\@writefile{toc}{\contentsline {subsubsection}{\numberline {4.5.4}Deconvolutional Layer}{24}{subsubsection.4.5.4}}
\@writefile{lof}{\contentsline {figure}{\numberline {19}{\ignorespaces Conv: Deconvolutional Layer}}{24}{figure.caption.37}}
\newlabel{fig:Conv: Deonvolutional Layer}{{19}{24}{Conv: Deconvolutional Layer}{figure.caption.37}{}}
\newlabel{fig:Conv: Deonvolutional Layer@cref}{{[figure][19][]19}{24}}
\@writefile{lof}{\contentsline {figure}{\numberline {20}{\ignorespaces Conv: Deconvolutional Layer ex}}{25}{figure.caption.38}}
\newlabel{fig:deconvex}{{20}{25}{Conv: Deconvolutional Layer ex}{figure.caption.38}{}}
\newlabel{fig:deconvex@cref}{{[figure][20][]20}{25}}
\@writefile{toc}{\contentsline {subsubsection}{\numberline {4.5.5}Upsample Layer}{25}{subsubsection.4.5.5}}
\@writefile{lof}{\contentsline {figure}{\numberline {21}{\ignorespaces Conv: Upsample Layer}}{25}{figure.caption.39}}
\newlabel{fig:Conv: Upsample Layer}{{21}{25}{Conv: Upsample Layer}{figure.caption.39}{}}
\newlabel{fig:Conv: Upsample Layer@cref}{{[figure][21][]21}{25}}
\citation{Shelhamer:2017:FCN:3069214.3069246}
\citation{Shelhamer:2017:FCN:3069214.3069246}
\citation{Krizhevsky:2012:ICD:2999134.2999257}
\@writefile{toc}{\contentsline {subsubsection}{\numberline {4.5.6}Aufbau PRICoNN}{26}{subsubsection.4.5.6}}
\@writefile{lot}{\contentsline {table}{\numberline {5}{\ignorespaces Vergleich Bildpixelgr\IeC {\"o}\IeC {\ss }e mit ihren Vorhersagen\relax }}{26}{table.caption.40}}
\newlabel{tab:dimtest}{{5}{26}{Vergleich Bildpixelgröße mit ihren Vorhersagen\relax }{table.caption.40}{}}
\newlabel{tab:dimtest@cref}{{[table][5][]5}{26}}
\citation{hhu}
\citation{hhu}
\citation{DBLP:journals/corr/RonnebergerFB15}
\@writefile{lof}{\contentsline {figure}{\numberline {22}{\ignorespaces Conv: Dropout Layer}}{27}{figure.caption.41}}
\newlabel{fig:Conv: Dropout Layer}{{22}{27}{Conv: Dropout Layer}{figure.caption.41}{}}
\newlabel{fig:Conv: Dropout Layer@cref}{{[figure][22][]22}{27}}
\@writefile{lof}{\contentsline {figure}{\numberline {23}{\ignorespaces Schematischer Ablauf Encoder}}{28}{figure.caption.42}}
\newlabel{fig:Encoder}{{23}{28}{Schematischer Ablauf Encoder}{figure.caption.42}{}}
\newlabel{fig:Encoder@cref}{{[figure][23][]23}{28}}
\@writefile{lof}{\contentsline {figure}{\numberline {24}{\ignorespaces Schematischer Ablauf Decoder}}{29}{figure.caption.43}}
\newlabel{fig:Decoder}{{24}{29}{Schematischer Ablauf Decoder}{figure.caption.43}{}}
\newlabel{fig:Decoder@cref}{{[figure][24][]24}{29}}
\@writefile{toc}{\contentsline {subsubsection}{\numberline {4.5.7}Grenzen von PRICoNN}{29}{subsubsection.4.5.7}}
\@writefile{toc}{\contentsline {paragraph}{\nonumberline Datensatz}{29}{section*.44}}
\@writefile{lot}{\contentsline {table}{\numberline {6}{\ignorespaces Auslastung des Netzwerkes\relax }}{30}{table.caption.45}}
\newlabel{tab:ausl}{{6}{30}{Auslastung des Netzwerkes\relax }{table.caption.45}{}}
\newlabel{tab:ausl@cref}{{[table][6][]6}{30}}
\@writefile{lot}{\contentsline {table}{\numberline {7}{\ignorespaces Nicht m\IeC {\"o}gliche Konfigurationen f\IeC {\"u}r das Training\relax }}{31}{table.caption.46}}
\newlabel{tab:grenzen}{{7}{31}{Nicht mögliche Konfigurationen für das Training\relax }{table.caption.46}{}}
\newlabel{tab:grenzen@cref}{{[table][7][]7}{31}}
\@writefile{toc}{\contentsline {paragraph}{\nonumberline Modell}{31}{section*.47}}
\newlabel{eq:spe}{{9}{31}{Modell}{equation.4.9}{}}
\newlabel{eq:spe@cref}{{[equation][9][]9}{31}}
\@writefile{toc}{\contentsline {section}{\numberline {5}Implementierung PRICoNN}{32}{section.5}}
\newlabel{impl}{{5}{32}{Implementierung PRICoNN}{section.5}{}}
\newlabel{impl@cref}{{[section][5][]5}{32}}
\@writefile{toc}{\contentsline {subsection}{\numberline {5.1}JSON Konfiguration}{32}{subsection.5.1}}
\@writefile{toc}{\contentsline {paragraph}{\nonumberline Trainingseinstellung}{32}{section*.48}}
\newlabel{lst:cfgparam}{{1}{33}{Parameter Objekt aus Konfiguration}{lstlisting.1}{}}
\newlabel{lst:cfgparam@cref}{{[listing][1][]1}{33}}
\@writefile{lol}{\contentsline {lstlisting}{\numberline {1}Parameter Objekt aus Konfiguration}{33}{lstlisting.1}}
\newlabel{lst:cfgcfg}{{2}{33}{Individuelles Trainings Objekt aus Konfiguration}{lstlisting.2}{}}
\newlabel{lst:cfgcfg@cref}{{[listing][2][]2}{33}}
\@writefile{lol}{\contentsline {lstlisting}{\numberline {2}Individuelles Trainings Objekt aus Konfiguration}{33}{lstlisting.2}}
\newlabel{lst:cfgopt}{{3}{34}{Optimizer Objekt aus Konfiguration}{lstlisting.3}{}}
\newlabel{lst:cfgopt@cref}{{[listing][3][]3}{34}}
\@writefile{lol}{\contentsline {lstlisting}{\numberline {3}Optimizer Objekt aus Konfiguration}{34}{lstlisting.3}}
\@writefile{toc}{\contentsline {paragraph}{\nonumberline Evaluierungseinstellung}{35}{section*.49}}
\newlabel{lst:eval}{{4}{35}{Objekt aus Evaluierungskonfiguration}{lstlisting.4}{}}
\newlabel{lst:eval@cref}{{[listing][4][]4}{35}}
\@writefile{lol}{\contentsline {lstlisting}{\numberline {4}Objekt aus Evaluierungskonfiguration}{35}{lstlisting.4}}
\@writefile{toc}{\contentsline {subsection}{\numberline {5.2}Klasse PRICoNN}{36}{subsection.5.2}}
\newlabel{lst:init_model}{{5}{36}{Init Model}{lstlisting.5}{}}
\newlabel{lst:init_model@cref}{{[listing][5][]5}{36}}
\@writefile{lol}{\contentsline {lstlisting}{\numberline {5}Init Model}{36}{lstlisting.5}}
\newlabel{lst:init_optimizer}{{6}{37}{Init Optimizer}{lstlisting.6}{}}
\newlabel{lst:init_optimizer@cref}{{[listing][6][]6}{37}}
\@writefile{lol}{\contentsline {lstlisting}{\numberline {6}Init Optimizer}{37}{lstlisting.6}}
\citation{sing}
\@writefile{lof}{\contentsline {figure}{\numberline {25}{\ignorespaces Ablaufdiagramm PRICoNN System}}{38}{figure.caption.50}}
\newlabel{fig:Ablaufdiagramm}{{25}{38}{Ablaufdiagramm PRICoNN System}{figure.caption.50}{}}
\newlabel{fig:Ablaufdiagramm@cref}{{[figure][25][]25}{38}}
\@writefile{toc}{\contentsline {subsection}{\numberline {5.3}Klasse Model}{38}{subsection.5.3}}
\newlabel{lst:Singleton}{{7}{38}{Singleton Pattern in Python}{lstlisting.7}{}}
\newlabel{lst:Singleton@cref}{{[listing][7][]7}{38}}
\@writefile{lol}{\contentsline {lstlisting}{\numberline {7}Singleton Pattern in Python}{38}{lstlisting.7}}
\citation{chollet2015keras}
\citation{Shelhamer:2017:FCN:3069214.3069246}
\newlabel{lst:init}{{8}{39}{Initialisierung des Model-Objektes}{lstlisting.8}{}}
\newlabel{lst:init@cref}{{[listing][8][]8}{39}}
\@writefile{lol}{\contentsline {lstlisting}{\numberline {8}Initialisierung des Model-Objektes}{39}{lstlisting.8}}
\newlabel{lst:init}{{9}{39}{Initialisierung der Aktivierungsfunktion}{lstlisting.9}{}}
\newlabel{lst:init@cref}{{[listing][9][]9}{39}}
\@writefile{lol}{\contentsline {lstlisting}{\numberline {9}Initialisierung der Aktivierungsfunktion}{39}{lstlisting.9}}
\newlabel{lst:modelencoder}{{10}{40}{PRICoNN Model: Encoder}{lstlisting.10}{}}
\newlabel{lst:modelencoder@cref}{{[listing][10][]10}{40}}
\@writefile{lol}{\contentsline {lstlisting}{\numberline {10}PRICoNN Model: Encoder}{40}{lstlisting.10}}
\newlabel{lst:modeldecoder}{{11}{41}{PRICoNN Model: Decoder}{lstlisting.11}{}}
\newlabel{lst:modeldecoder@cref}{{[listing][11][]11}{41}}
\@writefile{lol}{\contentsline {lstlisting}{\numberline {11}PRICoNN Model: Decoder}{41}{lstlisting.11}}
\@writefile{toc}{\contentsline {subsection}{\numberline {5.4}Klasse Data}{42}{subsection.5.4}}
\newlabel{lst:loadtrain}{{12}{42}{Laden der Trainingsdaten}{lstlisting.12}{}}
\newlabel{lst:loadtrain@cref}{{[listing][12][]12}{42}}
\@writefile{lol}{\contentsline {lstlisting}{\numberline {12}Laden der Trainingsdaten}{42}{lstlisting.12}}
\citation{factory}
\newlabel{lst:loadeval}{{13}{43}{Laden der Evaluationsdaten}{lstlisting.13}{}}
\newlabel{lst:loadeval@cref}{{[listing][13][]13}{43}}
\@writefile{lol}{\contentsline {lstlisting}{\numberline {13}Laden der Evaluationsdaten}{43}{lstlisting.13}}
\@writefile{toc}{\contentsline {subsection}{\numberline {5.5}Klasse Optimizer}{43}{subsection.5.5}}
\newlabel{lst:loadopt}{{14}{43}{Laden des Optimizers}{lstlisting.14}{}}
\newlabel{lst:loadopt@cref}{{[listing][14][]14}{43}}
\@writefile{lol}{\contentsline {lstlisting}{\numberline {14}Laden des Optimizers}{43}{lstlisting.14}}
\newlabel{lst:createopt}{{15}{44}{Erstellen des Optimizers}{lstlisting.15}{}}
\newlabel{lst:createopt@cref}{{[listing][15][]15}{44}}
\@writefile{lol}{\contentsline {lstlisting}{\numberline {15}Erstellen des Optimizers}{44}{lstlisting.15}}
\@writefile{toc}{\contentsline {subsection}{\numberline {5.6}Klasse Eval}{45}{subsection.5.6}}
\newlabel{lst:cmartix}{{16}{45}{Methode zur Erstellung der Konfusionsmatrix}{lstlisting.16}{}}
\newlabel{lst:cmartix@cref}{{[listing][16][]16}{45}}
\@writefile{lol}{\contentsline {lstlisting}{\numberline {16}Methode zur Erstellung der Konfusionsmatrix}{45}{lstlisting.16}}
\newlabel{lst:lanes}{{17}{46}{Methode zur Visualisierung der Fehler}{lstlisting.17}{}}
\newlabel{lst:lanes@cref}{{[listing][17][]17}{46}}
\@writefile{lol}{\contentsline {lstlisting}{\numberline {17}Methode zur Visualisierung der Fehler}{46}{lstlisting.17}}
\@writefile{toc}{\contentsline {subsection}{\numberline {5.7}Klasse Lanes}{46}{subsection.5.7}}
\newlabel{lst:lanes}{{18}{47}{Methode zur Generierung der Vorhersage}{lstlisting.18}{}}
\newlabel{lst:lanes@cref}{{[listing][18][]18}{47}}
\@writefile{lol}{\contentsline {lstlisting}{\numberline {18}Methode zur Generierung der Vorhersage}{47}{lstlisting.18}}
\newlabel{lst:lanes}{{19}{47}{Methode zur Bearbeitung der Videos}{lstlisting.19}{}}
\newlabel{lst:lanes@cref}{{[listing][19][]19}{47}}
\@writefile{lol}{\contentsline {lstlisting}{\numberline {19}Methode zur Bearbeitung der Videos}{47}{lstlisting.19}}
\@writefile{lof}{\contentsline {figure}{\numberline {26}{\ignorespaces Ablaufdiagramm PRICoNN System: Evaluierung}}{48}{figure.caption.51}}
\newlabel{fig:AblaufdiagrammEval}{{26}{48}{Ablaufdiagramm PRICoNN System: Evaluierung}{figure.caption.51}{}}
\newlabel{fig:AblaufdiagrammEval@cref}{{[figure][26][]26}{48}}
\citation{MVD}
\citation{8265249}
\citation{DIP}
\citation{Richter_2016_ECCV}
\@writefile{toc}{\contentsline {section}{\numberline {6}Trainings- und Evaluationsdaten}{49}{section.6}}
\newlabel{data}{{6}{49}{Trainings- und Evaluationsdaten}{section.6}{}}
\newlabel{data@cref}{{[section][6][]6}{49}}
\@writefile{toc}{\contentsline {subsection}{\numberline {6.1}Vorhandene Datens\IeC {\"a}tze}{49}{subsection.6.1}}
\citation{teichmann2016multinet}
\@writefile{lot}{\contentsline {table}{\numberline {8}{\ignorespaces Vorhandene Datens\IeC {\"a}tze\relax }}{50}{table.caption.52}}
\newlabel{tab:data}{{8}{50}{Vorhandene Datensätze\relax }{table.caption.52}{}}
\newlabel{tab:data@cref}{{[table][8][]8}{50}}
\@writefile{toc}{\contentsline {subsection}{\numberline {6.2}Spezialisierter Stra\IeC {\ss }en- und Wege-Datensatz}{50}{subsection.6.2}}
\newlabel{fig:sub:kitti1}{{27a}{50}{Vorverarbeitung durch KittiSeg\relax }{figure.caption.53}{}}
\newlabel{fig:sub:kitti1@cref}{{[subfigure][1][27]27a}{50}}
\newlabel{sub@fig:sub:kitti1}{{a}{50}{Vorverarbeitung durch KittiSeg\relax }{figure.caption.53}{}}
\newlabel{sub@fig:sub:kitti1@cref}{{[subfigure][1][27]27a}{50}}
\newlabel{fig:sub:kitti2}{{27b}{50}{Annotierung des Bildes\relax }{figure.caption.53}{}}
\newlabel{fig:sub:kitti2@cref}{{[subfigure][2][27]27b}{50}}
\newlabel{sub@fig:sub:kitti2}{{b}{50}{Annotierung des Bildes\relax }{figure.caption.53}{}}
\newlabel{sub@fig:sub:kitti2@cref}{{[subfigure][2][27]27b}{50}}
\@writefile{lof}{\contentsline {figure}{\numberline {27}{\ignorespaces Spezialisierter Stra\IeC {\ss }en- und Wege-Datensatz\relax }}{50}{figure.caption.53}}
\newlabel{fig:Vorverarbeitung durch KittiSeg}{{27}{50}{Spezialisierter Straßen- und Wege-Datensatz\relax }{figure.caption.53}{}}
\newlabel{fig:Vorverarbeitung durch KittiSeg@cref}{{[figure][27][]27}{50}}
\@writefile{toc}{\contentsline {subsection}{\numberline {6.3}Definition der Befahrbarkeit}{51}{subsection.6.3}}
\@writefile{toc}{\contentsline {subsection}{\numberline {6.4}Data Augmentation}{51}{subsection.6.4}}
\@writefile{toc}{\contentsline {subsubsection}{\numberline {6.4.1}Image-Manipulation}{51}{subsubsection.6.4.1}}
\newlabel{lst:snp}{{20}{52}{Image-Manipulation}{lstlisting.20}{}}
\newlabel{lst:snp@cref}{{[listing][20][]20}{52}}
\@writefile{lol}{\contentsline {lstlisting}{\numberline {20}Image-Manipulation.}{52}{lstlisting.20}}
\@writefile{lof}{\contentsline {figure}{\numberline {28}{\ignorespaces Semantischer Bereich eines Bildes}}{52}{figure.caption.54}}
\newlabel{fig:Semantischer Bereich}{{28}{52}{Semantischer Bereich eines Bildes}{figure.caption.54}{}}
\newlabel{fig:Semantischer Bereich@cref}{{[figure][28][]28}{52}}
\newlabel{fig:sub:obj1}{{29a}{53}{Originalbild des Objektes\relax }{figure.caption.55}{}}
\newlabel{fig:sub:obj1@cref}{{[subfigure][1][29]29a}{53}}
\newlabel{sub@fig:sub:obj1}{{a}{53}{Originalbild des Objektes\relax }{figure.caption.55}{}}
\newlabel{sub@fig:sub:obj1@cref}{{[subfigure][1][29]29a}{53}}
\newlabel{fig:sub:obj2}{{29b}{53}{Groundtruth des Objektes\relax }{figure.caption.55}{}}
\newlabel{fig:sub:obj2@cref}{{[subfigure][2][29]29b}{53}}
\newlabel{sub@fig:sub:obj2}{{b}{53}{Groundtruth des Objektes\relax }{figure.caption.55}{}}
\newlabel{sub@fig:sub:obj2@cref}{{[subfigure][2][29]29b}{53}}
\@writefile{lof}{\contentsline {figure}{\numberline {29}{\ignorespaces Bild des k\IeC {\"u}nstlichen Objekts und Maske f\IeC {\"u}r die Anpassung des Groundtruth-Bildes\relax }}{53}{figure.caption.55}}
\newlabel{fig:obj}{{29}{53}{Bild des künstlichen Objekts und Maske für die Anpassung des Groundtruth-Bildes\relax }{figure.caption.55}{}}
\newlabel{fig:obj@cref}{{[figure][29][]29}{53}}
\newlabel{lst:snp}{{21}{53}{Image-Manipulation}{lstlisting.21}{}}
\newlabel{lst:snp@cref}{{[listing][21][]21}{53}}
\@writefile{lol}{\contentsline {lstlisting}{\numberline {21}Image-Manipulation.}{53}{lstlisting.21}}
\@writefile{lof}{\contentsline {figure}{\numberline {30}{\ignorespaces Image-Manipulation}}{54}{figure.caption.56}}
\newlabel{fig:Image-Manipulation}{{30}{54}{Image-Manipulation}{figure.caption.56}{}}
\newlabel{fig:Image-Manipulation@cref}{{[figure][30][]30}{54}}
\@writefile{toc}{\contentsline {subsubsection}{\numberline {6.4.2}Cropping}{54}{subsubsection.6.4.2}}
\newlabel{lst:crop}{{22}{54}{Cropping}{lstlisting.22}{}}
\newlabel{lst:crop@cref}{{[listing][22][]22}{54}}
\@writefile{lol}{\contentsline {lstlisting}{\numberline {22}Cropping}{54}{lstlisting.22}}
\citation{chollet2015keras}
\newlabel{fig:sub:crop1}{{31a}{55}{Cropping top left\relax }{figure.caption.57}{}}
\newlabel{fig:sub:crop1@cref}{{[subfigure][1][31]31a}{55}}
\newlabel{sub@fig:sub:crop1}{{a}{55}{Cropping top left\relax }{figure.caption.57}{}}
\newlabel{sub@fig:sub:crop1@cref}{{[subfigure][1][31]31a}{55}}
\newlabel{fig:sub:crop2}{{31b}{55}{Cropping top right\relax }{figure.caption.57}{}}
\newlabel{fig:sub:crop2@cref}{{[subfigure][2][31]31b}{55}}
\newlabel{sub@fig:sub:crop2}{{b}{55}{Cropping top right\relax }{figure.caption.57}{}}
\newlabel{sub@fig:sub:crop2@cref}{{[subfigure][2][31]31b}{55}}
\newlabel{fig:sub:crop3}{{31c}{55}{Cropping bottom left\relax }{figure.caption.57}{}}
\newlabel{fig:sub:crop3@cref}{{[subfigure][3][31]31c}{55}}
\newlabel{sub@fig:sub:crop3}{{c}{55}{Cropping bottom left\relax }{figure.caption.57}{}}
\newlabel{sub@fig:sub:crop3@cref}{{[subfigure][3][31]31c}{55}}
\newlabel{fig:sub:crop4}{{31d}{55}{Cropping bottom right\relax }{figure.caption.57}{}}
\newlabel{fig:sub:crop4@cref}{{[subfigure][4][31]31d}{55}}
\newlabel{sub@fig:sub:crop4}{{d}{55}{Cropping bottom right\relax }{figure.caption.57}{}}
\newlabel{sub@fig:sub:crop4@cref}{{[subfigure][4][31]31d}{55}}
\@writefile{lof}{\contentsline {figure}{\numberline {31}{\ignorespaces Ergebnis Cropping-Methode\relax }}{55}{figure.caption.57}}
\newlabel{fig:crop}{{31}{55}{Ergebnis Cropping-Methode\relax }{figure.caption.57}{}}
\newlabel{fig:crop@cref}{{[figure][31][]31}{55}}
\@writefile{toc}{\contentsline {subsubsection}{\numberline {6.4.3}Flipping}{55}{subsubsection.6.4.3}}
\newlabel{fig:sub:Flipping1}{{32a}{55}{Originalbild\relax }{figure.caption.58}{}}
\newlabel{fig:sub:Flipping1@cref}{{[subfigure][1][32]32a}{55}}
\newlabel{sub@fig:sub:Flipping1}{{a}{55}{Originalbild\relax }{figure.caption.58}{}}
\newlabel{sub@fig:sub:Flipping1@cref}{{[subfigure][1][32]32a}{55}}
\newlabel{fig:sub:Flipping2}{{32b}{55}{Gespiegeltes Bild\relax }{figure.caption.58}{}}
\newlabel{fig:sub:Flipping2@cref}{{[subfigure][2][32]32b}{55}}
\newlabel{sub@fig:sub:Flipping2}{{b}{55}{Gespiegeltes Bild\relax }{figure.caption.58}{}}
\newlabel{sub@fig:sub:Flipping2@cref}{{[subfigure][2][32]32b}{55}}
\@writefile{lof}{\contentsline {figure}{\numberline {32}{\ignorespaces Ergebnis Flipping\relax }}{55}{figure.caption.58}}
\newlabel{fig:Flipping}{{32}{55}{Ergebnis Flipping\relax }{figure.caption.58}{}}
\newlabel{fig:Flipping@cref}{{[figure][32][]32}{55}}
\@writefile{toc}{\contentsline {subsection}{\numberline {6.5}Groundtruth}{55}{subsection.6.5}}
\newlabel{lst:image}{{23}{56}{Image Normalisierung}{lstlisting.23}{}}
\newlabel{lst:image@cref}{{[listing][23][]23}{56}}
\@writefile{lol}{\contentsline {lstlisting}{\numberline {23}Image Normalisierung.}{56}{lstlisting.23}}
\newlabel{lst:gtNorm}{{24}{56}{Groundtruth Normalisierung}{lstlisting.24}{}}
\newlabel{lst:gtNorm@cref}{{[listing][24][]24}{56}}
\@writefile{lol}{\contentsline {lstlisting}{\numberline {24}Groundtruth Normalisierung.}{56}{lstlisting.24}}
\newlabel{fig:sub:gtNorm1}{{33a}{57}{Groundtruth MVD\relax }{figure.caption.59}{}}
\newlabel{fig:sub:gtNorm1@cref}{{[subfigure][1][33]33a}{57}}
\newlabel{sub@fig:sub:gtNorm1}{{a}{57}{Groundtruth MVD\relax }{figure.caption.59}{}}
\newlabel{sub@fig:sub:gtNorm1@cref}{{[subfigure][1][33]33a}{57}}
\newlabel{fig:sub:gtNorm2}{{33b}{57}{Groundtruth PRICoNN\relax }{figure.caption.59}{}}
\newlabel{fig:sub:gtNorm2@cref}{{[subfigure][2][33]33b}{57}}
\newlabel{sub@fig:sub:gtNorm2}{{b}{57}{Groundtruth PRICoNN\relax }{figure.caption.59}{}}
\newlabel{sub@fig:sub:gtNorm2@cref}{{[subfigure][2][33]33b}{57}}
\@writefile{lof}{\contentsline {figure}{\numberline {33}{\ignorespaces Groundtruth-Normalisierung MVD zu PRICoNN\relax }}{57}{figure.caption.59}}
\newlabel{fig:gtNorm}{{33}{57}{Groundtruth-Normalisierung MVD zu PRICoNN\relax }{figure.caption.59}{}}
\newlabel{fig:gtNorm@cref}{{[figure][33][]33}{57}}
\newlabel{lst:imgFp}{{25}{57}{Ausgabe der archivierten Dateien}{lstlisting.25}{}}
\newlabel{lst:imgFp@cref}{{[listing][25][]25}{57}}
\@writefile{lol}{\contentsline {lstlisting}{\numberline {25}Ausgabe der archivierten Dateien.}{57}{lstlisting.25}}
\@writefile{toc}{\contentsline {section}{\numberline {7}Training PRICoNN}{58}{section.7}}
\newlabel{train}{{7}{58}{Training PRICoNN}{section.7}{}}
\newlabel{train@cref}{{[section][7][]7}{58}}
\@writefile{toc}{\contentsline {subsection}{\numberline {7.1}Parameter}{58}{subsection.7.1}}
\@writefile{toc}{\contentsline {subsubsection}{\numberline {7.1.1}Model Parameter}{58}{subsubsection.7.1.1}}
\@writefile{toc}{\contentsline {paragraph}{\nonumberline Accuracy}{58}{section*.60}}
\newlabel{eq:cat}{{10}{58}{Accuracy}{equation.7.10}{}}
\newlabel{eq:cat@cref}{{[equation][10][]10}{58}}
\newlabel{eq:bin}{{11}{58}{Accuracy}{equation.7.11}{}}
\newlabel{eq:bin@cref}{{[equation][11][]11}{58}}
\citation{Momentum}
\@writefile{toc}{\contentsline {paragraph}{\nonumberline Loss}{59}{section*.61}}
\@writefile{toc}{\contentsline {subsubsection}{\numberline {7.1.2}Optimizer Parameter}{59}{subsubsection.7.1.2}}
\@writefile{toc}{\contentsline {paragraph}{\nonumberline Learning Rate}{59}{section*.62}}
\@writefile{toc}{\contentsline {paragraph}{\nonumberline Momentum}{59}{section*.63}}
\@writefile{lof}{\contentsline {figure}{\numberline {34}{\ignorespaces Darstellung lokales/globales Minimum}}{60}{figure.caption.64}}
\newlabel{fig:momentum}{{34}{60}{Darstellung lokales/globales Minimum}{figure.caption.64}{}}
\newlabel{fig:momentum@cref}{{[figure][34][]34}{60}}
\@writefile{toc}{\contentsline {paragraph}{\nonumberline Epsilon}{60}{section*.65}}
\@writefile{toc}{\contentsline {subsection}{\numberline {7.2}Metriken}{61}{subsection.7.2}}
\@writefile{toc}{\contentsline {subsubsection}{\numberline {7.2.1}Checkpoint}{61}{subsubsection.7.2.1}}
\@writefile{toc}{\contentsline {subsubsection}{\numberline {7.2.2}TensorBoard}{61}{subsubsection.7.2.2}}
\@writefile{lof}{\contentsline {figure}{\numberline {35}{\ignorespaces Darstellung Genauigkeit der Vorhersage}}{62}{figure.caption.66}}
\newlabel{fig:tenstrain}{{35}{62}{Darstellung Genauigkeit der Vorhersage}{figure.caption.66}{}}
\newlabel{fig:tenstrain@cref}{{[figure][35][]35}{62}}
\@writefile{toc}{\contentsline {subsection}{\numberline {7.3}Trainingskonfiguration}{62}{subsection.7.3}}
\newlabel{ergbenis}{{7.3}{62}{Trainingskonfiguration}{subsection.7.3}{}}
\newlabel{ergbenis@cref}{{[subsection][3][7]7.3}{62}}
\@writefile{toc}{\contentsline {subsubsection}{\numberline {7.3.1}Versuchsreihe Adam}{62}{subsubsection.7.3.1}}
\@writefile{lot}{\contentsline {table}{\numberline {9}{\ignorespaces Versuchsreihe Adam\relax }}{63}{table.caption.67}}
\newlabel{tab:adam}{{9}{63}{Versuchsreihe Adam\relax }{table.caption.67}{}}
\newlabel{tab:adam@cref}{{[table][9][]9}{63}}
\@writefile{toc}{\contentsline {subsubsection}{\numberline {7.3.2}Versuchsreihe SGD}{63}{subsubsection.7.3.2}}
\@writefile{lot}{\contentsline {table}{\numberline {10}{\ignorespaces Versuchsreihe SGD\relax }}{63}{table.caption.68}}
\newlabel{tab:sgd}{{10}{63}{Versuchsreihe SGD\relax }{table.caption.68}{}}
\newlabel{tab:sgd@cref}{{[table][10][]10}{63}}
\@writefile{toc}{\contentsline {subsection}{\numberline {7.4}Trainingsergebnis}{63}{subsection.7.4}}
\@writefile{lof}{\contentsline {figure}{\numberline {36}{\ignorespaces Vergleich}}{64}{figure.caption.69}}
\newlabel{fig:tenseval}{{36}{64}{Vergleich}{figure.caption.69}{}}
\newlabel{fig:tenseval@cref}{{[figure][36][]36}{64}}
\@writefile{toc}{\contentsline {section}{\numberline {8}Evaluierung PRICoNN}{65}{section.8}}
\newlabel{eval}{{8}{65}{Evaluierung PRICoNN}{section.8}{}}
\newlabel{eval@cref}{{[section][8][]8}{65}}
\@writefile{lof}{\contentsline {figure}{\numberline {37}{\ignorespaces Konfusionsmatrix}}{65}{figure.caption.70}}
\newlabel{fig:cm_adam}{{37}{65}{Konfusionsmatrix}{figure.caption.70}{}}
\newlabel{fig:cm_adam@cref}{{[figure][37][]37}{65}}
\@writefile{lof}{\contentsline {figure}{\numberline {38}{\ignorespaces Konfusionsmatrix}}{66}{figure.caption.71}}
\newlabel{fig:cm_sgd}{{38}{66}{Konfusionsmatrix}{figure.caption.71}{}}
\newlabel{fig:cm_sgd@cref}{{[figure][38][]38}{66}}
\newlabel{fig:sub:err1}{{39a}{66}{Fehlerbild KOMBI1\relax }{figure.caption.72}{}}
\newlabel{fig:sub:err1@cref}{{[subfigure][1][39]39a}{66}}
\newlabel{sub@fig:sub:err1}{{a}{66}{Fehlerbild KOMBI1\relax }{figure.caption.72}{}}
\newlabel{sub@fig:sub:err1@cref}{{[subfigure][1][39]39a}{66}}
\newlabel{fig:sub:err2}{{39b}{66}{Fehlerbild KOMBI2\relax }{figure.caption.72}{}}
\newlabel{fig:sub:err2@cref}{{[subfigure][2][39]39b}{66}}
\newlabel{sub@fig:sub:err2}{{b}{66}{Fehlerbild KOMBI2\relax }{figure.caption.72}{}}
\newlabel{sub@fig:sub:err2@cref}{{[subfigure][2][39]39b}{66}}
\@writefile{lof}{\contentsline {figure}{\numberline {39}{\ignorespaces Fehlerbild Deutung von KOMBI1 und KOMBI2\relax }}{66}{figure.caption.72}}
\newlabel{fig:err}{{39}{66}{Fehlerbild Deutung von KOMBI1 und KOMBI2\relax }{figure.caption.72}{}}
\newlabel{fig:err@cref}{{[figure][39][]39}{66}}
\newlabel{fig:sub:shadow1}{{40a}{67}{Fehlerbild KOMBI1 vorher\relax }{figure.caption.73}{}}
\newlabel{fig:sub:shadow1@cref}{{[subfigure][1][40]40a}{67}}
\newlabel{sub@fig:sub:shadow1}{{a}{67}{Fehlerbild KOMBI1 vorher\relax }{figure.caption.73}{}}
\newlabel{sub@fig:sub:shadow1@cref}{{[subfigure][1][40]40a}{67}}
\newlabel{fig:sub:shadow2}{{40b}{67}{Fehlerbild KOMBI1 nachher\relax }{figure.caption.73}{}}
\newlabel{fig:sub:shadow2@cref}{{[subfigure][2][40]40b}{67}}
\newlabel{sub@fig:sub:shadow2}{{b}{67}{Fehlerbild KOMBI1 nachher\relax }{figure.caption.73}{}}
\newlabel{sub@fig:sub:shadow2@cref}{{[subfigure][2][40]40b}{67}}
\@writefile{lof}{\contentsline {figure}{\numberline {40}{\ignorespaces Fehlerbild Schatten aus KOMBI1\relax }}{67}{figure.caption.73}}
\newlabel{fig:shadow}{{40}{67}{Fehlerbild Schatten aus KOMBI1\relax }{figure.caption.73}{}}
\newlabel{fig:shadow@cref}{{[figure][40][]40}{67}}
\@writefile{lot}{\contentsline {table}{\numberline {11}{\ignorespaces Max F1-Score von KOMBI1 und KOMBI2\relax }}{68}{table.caption.74}}
\newlabel{tab:max}{{11}{68}{Max F1-Score von KOMBI1 und KOMBI2\relax }{table.caption.74}{}}
\newlabel{tab:max@cref}{{[table][11][]11}{68}}
\@writefile{lot}{\contentsline {table}{\numberline {12}{\ignorespaces Max F1-Score absoluter Wert von KOMBI1\relax }}{68}{table.caption.75}}
\newlabel{tab:max2}{{12}{68}{Max F1-Score absoluter Wert von KOMBI1\relax }{table.caption.75}{}}
\newlabel{tab:max2@cref}{{[table][12][]12}{68}}
\newlabel{fig:sub:erg1}{{41a}{68}{Ergebnis urbane Straße\relax }{figure.caption.76}{}}
\newlabel{fig:sub:erg1@cref}{{[subfigure][1][41]41a}{68}}
\newlabel{sub@fig:sub:erg1}{{a}{68}{Ergebnis urbane Straße\relax }{figure.caption.76}{}}
\newlabel{sub@fig:sub:erg1@cref}{{[subfigure][1][41]41a}{68}}
\newlabel{fig:sub:erg2}{{41b}{68}{Ergebnis ruraler Weg\relax }{figure.caption.76}{}}
\newlabel{fig:sub:erg2@cref}{{[subfigure][2][41]41b}{68}}
\newlabel{sub@fig:sub:erg2}{{b}{68}{Ergebnis ruraler Weg\relax }{figure.caption.76}{}}
\newlabel{sub@fig:sub:erg2@cref}{{[subfigure][2][41]41b}{68}}
\@writefile{lof}{\contentsline {figure}{\numberline {41}{\ignorespaces Ergebnis f\IeC {\"u}r urbane Struktur und rurale Struktur\relax }}{68}{figure.caption.76}}
\newlabel{fig:erg}{{41}{68}{Ergebnis für urbane Struktur und rurale Struktur\relax }{figure.caption.76}{}}
\newlabel{fig:erg@cref}{{[figure][41][]41}{68}}
\@writefile{toc}{\contentsline {section}{\numberline {9}Ergebnis}{69}{section.9}}
\newlabel{ergebnis}{{9}{69}{Ergebnis}{section.9}{}}
\newlabel{ergebnis@cref}{{[section][9][]9}{69}}
\@writefile{toc}{\contentsline {section}{\numberline {10}Ausblick}{70}{section.10}}
\newlabel{ausbick}{{10}{70}{Ausblick}{section.10}{}}
\newlabel{ausbick@cref}{{[section][10][]10}{70}}
\bibdata{Hauptdatei}
\bibcite{AnacondaWiki}{Ana18a}
\bibcite{Anaconda}{Ana18b}
\bibcite{autoBW}{aut18}
\bibcite{back}{bac18}
\bibcite{bias}{bia18}
\bibcite{chollet2015keras}{C{$^{+}$}15}
\bibcite{chatbot}{cha17}
\bibcite{CNN_Aufbau}{CNN18}
\bibcite{cntk}{cnt18}
\bibcite{Convd}{Con18}
\bibcite{cross_entropy}{cro18}
\bibcite{Doukkali2018Jun}{Dou18}
\bibcite{entr}{ent18}
\bibcite{factory}{fac18}
\@writefile{toc}{\contentsline {section}{IV. Literaturverzeichnis}{X}{section.10}}
\bibcite{fcnn}{fcn18}
\bibcite{Fritsch2013ITSC}{FKG13}
\bibcite{GoogleNet}{Goo18a}
\bibcite{googleAuto}{goo18b}
\bibcite{hhu}{hhu17}
\bibcite{ILSVRC2012}{ILS14}
\bibcite{2015arXiv150203167I}{IS15}
\bibcite{keferstein2018fertigungsmesstechnik}{Kef18}
\bibcite{keras}{ker18}
\bibcite{KITVBS}{KIT18}
\bibcite{NIPS2012_4824}{KSH12a}
\bibcite{Krizhevsky:2012:ICD:2999134.2999257}{KSH12b}
\bibcite{Lau2018Jun}{Lau18}
\bibcite{LeakyReLU}{Lea}
\bibcite{MAE}{MAE18}
\bibcite{MaxPool}{Max18}
\bibcite{mnist}{mni13}
\bibcite{mnistabb}{mni17}
\bibcite{Momentum}{Mom18}
\bibcite{MSE}{MSE18}
\bibcite{MVD}{MVD18}
\bibcite{DIP}{MZ13}
\bibcite{Silberman:ECCV12}{NSF12}
\bibcite{opencv}{ope18}
\bibcite{BAAINBw}{PA17}
\bibcite{PASCALVOC}{PAS16}
\bibcite{PicNeuron}{Pic18}
\bibcite{quora}{quo18}
\bibcite{Redmon2018Aug}{Red18}
\bibcite{Relu_2}{Rel18a}
\bibcite{ReLU_1}{ReL18b}
\bibcite{DBLP:journals/corr/RonnebergerFB15}{RFB15}
\bibcite{Richter_2016_ECCV}{RVRK16}
\bibcite{dosSantos2018May}{San18}
\bibcite{udemy}{Sch18}
\bibcite{sing}{sin18}
\bibcite{Shelhamer:2017:FCN:3069214.3069246}{SLD17}
\bibcite{43022}{SLJ{$^{+}$}15}
\bibcite{Scherer:2010:EPO:1886436.1886447}{SMB10}
\bibcite{Smith1993}{Smi93}
\bibcite{Spark2018Jul}{Spa18}
\bibcite{STUsgd}{STU17}
\bibcite{SWIFT}{SWI11}
\bibcite{Simonyan14c}{SZ14}
\bibcite{Tensorboard}{Ten17}
\bibcite{tensor}{ten18a}
\bibcite{Tens}{Ten18b}
\bibcite{teichmann2016multinet}{TWZ{$^{+}$}16}
\bibcite{User2018May}{Use18}
\bibcite{virgo}{Vir}
\bibcite{WikiKNN}{Wik18a}
\bibcite{WIKIsgd}{WIK18b}
\bibcite{8265249}{WSAP17}
\bibcite{m.zaradzki2018Jun}{zar18}
\bibstyle{alpha}
\@writefile{toc}{\contentsline {section}{V. Abbildungsverzeichnis}{XVI}{section*.77}}
\citation{keferstein2018fertigungsmesstechnik}
\@writefile{toc}{\contentsline {section}{VI. Tabellenverzeichnis}{XVIII}{section*.78}}
\@writefile{toc}{\contentsline {section}{VII. Source Code Verzeichnis}{XIX}{section*.79}}
\@writefile{toc}{\setcounter {tocdepth}{-1}}
\@writefile{toc}{\contentsline {section}{\numberline {VIII}Anhang}{XX}{section.8}}
\newlabel{anhang}{{VIII}{XX}{Anhang}{section.8}{}}
\newlabel{anhang@cref}{{[section][8][]VIII}{XX}}
\@writefile{lot}{\contentsline {table}{\numberline {13}{\ignorespaces Auslastung des Netzwerkes\relax }}{XXI}{table.caption.83}}
\newlabel{tab:auslastung}{{13}{XXI}{Auslastung des Netzwerkes\relax }{table.caption.83}{}}
\newlabel{tab:auslastung@cref}{{[table][13][]13}{XXI}}
\@writefile{lot}{\contentsline {table}{\numberline {14}{\ignorespaces Trainingsergebnisse nach 1000 Epochen\relax }}{XXII}{table.caption.85}}
\newlabel{tab:training}{{14}{XXII}{Trainingsergebnisse nach 1000 Epochen\relax }{table.caption.85}{}}
\newlabel{tab:training@cref}{{[table][14][]14}{XXII}}
\@writefile{toc}{\contentsline {paragraph}{\nonumberline Organigramm BAAINBw}{XXIII}{section*.87}}
\newlabel{fig:Organigram_anh}{{\caption@xref {fig:Organigram_anh}{ on input line 95}}{XXIII}{Organigramm BAAINBw}{figure.caption.88}{}}
\newlabel{fig:Organigram_anh@cref}{{[section][8][]VIII}{XXIII}}
\@writefile{toc}{\contentsline {paragraph}{\nonumberline Ausschnitt aus Tensorboard}{XXIV}{section*.89}}
\newlabel{fig:organigram_u_anh}{{\caption@xref {fig:organigram_u_anh}{ on input line 102}}{XXIV}{Ausschnitt aus Tensorboard}{figure.caption.90}{}}
\newlabel{fig:organigram_u_anh@cref}{{[section][8][]VIII}{XXIV}}
\@writefile{toc}{\contentsline {paragraph}{\nonumberline U-Net: Biomedical Image Segmentation}{XXV}{section*.91}}
\newlabel{fig:unet_anh}{{\caption@xref {fig:unet_anh}{ on input line 109}}{XXV}{U-Net: Biomedical Image Segmentation}{figure.caption.92}{}}
\newlabel{fig:unet_anh@cref}{{[section][8][]VIII}{XXV}}
\@writefile{toc}{\contentsline {paragraph}{\nonumberline PRICoNN Architektur}{XXVI}{section*.93}}
\newlabel{fig:PRICoNN Architektur_anh}{{\caption@xref {fig:PRICoNN Architektur_anh}{ on input line 116}}{XXVI}{PRICoNN Architektur}{figure.caption.94}{}}
\newlabel{fig:PRICoNN Architektur_anh@cref}{{[section][8][]VIII}{XXVI}}
\@writefile{toc}{\contentsline {paragraph}{\nonumberline Schematischer Ablauf Encoder}{XXVII}{section*.95}}
\newlabel{fig:Encoder_anh}{{\caption@xref {fig:Encoder_anh}{ on input line 123}}{XXVII}{Schematischer Ablauf Encoder}{figure.caption.96}{}}
\newlabel{fig:Encoder_anh@cref}{{[section][8][]VIII}{XXVII}}
\@writefile{toc}{\contentsline {paragraph}{\nonumberline Schematischer Ablauf Decoder}{XXVIII}{section*.97}}
\newlabel{fig:decoder_anh}{{\caption@xref {fig:decoder_anh}{ on input line 130}}{XXVIII}{Schematischer Ablauf Decoder}{figure.caption.98}{}}
\newlabel{fig:decoder_anh@cref}{{[section][8][]VIII}{XXVIII}}
\@writefile{toc}{\contentsline {paragraph}{\nonumberline Ausschnitt aus Graph des PRICoNN System}{XXIX}{section*.99}}
\newlabel{fig:tensgraph_anh}{{\caption@xref {fig:tensgraph_anh}{ on input line 137}}{XXIX}{Ausschnitt aus Graph des PRICoNN System}{figure.caption.100}{}}
\newlabel{fig:tensgraph_anh@cref}{{[section][8][]VIII}{XXIX}}
\@writefile{toc}{\setcounter {tocdepth}{2}}
\@writefile{toc}{\contentsline {section}{VIII. Anhang}{XXXVII}{section*.101}}
\@input{erklaerung/erklaerung.aux}
\@writefile{toc}{\contentsline {section}{\numberline {X}Erkl\IeC {\"a}rung zu Eigentum und Urheberrecht}{XXXIX}{section.10}}
\global\@altsecnumformattrue
